strict digraph XOR {
  rankdir = LR;
  splines="line";
  edge [arrowsize=0.75]
  node [shape="circle" fixedsize=true]
  subgraph clusterInput {
    style="invis"
    node [color="black"]
    x0 [label="+1"]
    x1 [label="$x_1$"]
    x2 [label="$x_2$"]
  }
  subgraph clusterHidden1 {
    style="invis"
    node [color="coral"]
    a1_0 [label="+1"]
    a1_1 [label="$a^{(1)}_1$"]
    a1_2 [label="$a^{(1)}_2$"]
  }
  subgraph clusterOutput {
    style="invis"
    node [color="blue"]
    a2_0 [style="invis"]
    a2_1 [label="$a^{(2)}_1$"]
    a2_2 [style="invis"]
  }
  h [shape="plain" label="$\\boxed{x_1 \\oplus x_2}$" fixedsize=false]
  x0 -> a1_0 [style="invis" label="               "]
  x0 -> a1_1 [taillabel="-10" labeldistance=3 labelangle=25]
  x0 -> a1_2 [taillabel="-10" labeldistance=3 labelangle=15]
  x1 -> a1_1 [taillabel="20"  labeldistance=2 labelangle=15]
  x1 -> a1_2 [taillabel="-20" labeldistance=2 labelangle=20]
  x2 -> a1_1 [taillabel="-20" labeldistance=2.5 labelangle=12]
  x2 -> a1_2 [taillabel="20"  labeldistance=3 labelangle=10]
  a1_0 -> a2_1 [label="-10"]
  a1_1 -> a2_1 [label="20"]
  a1_2 -> a2_1 [label="20"]
  a2_1 -> h
}
