<svg width="900" height="500"><g>
  <!-- Headers / Footers -->
  <text x="450" y="25" text-anchor="middle" font-size="24px">Fully-Connected Neural Network</text>
  <text x="50" y="80" text-anchor="middle" font-size="16px">Input Layer</text>
  <text x="250" y="80" text-anchor="middle" font-size="16px">Hidden Layer #1</text>
  <text x="450" y="80" text-anchor="middle" font-size="16px">Hidden Layer #2</text>
  <text x="650" y="80" text-anchor="middle" font-size="16px">Output Layer</text>
  <text x="50" y="480" text-anchor="middle" font-size="16px">a<tspan font-size="8px" dy="-8px">(1)</tspan></text>
  <text x="150" y="480" text-anchor="middle" font-size="16px">Θ<tspan font-size="8px" dy="-8px">(1)</tspan></text>
  <text x="250" y="480" text-anchor="middle" font-size="16px">a<tspan font-size="8px" dy="-8px">(2)</tspan></text>
  <text x="350" y="480" text-anchor="middle" font-size="16px">Θ<tspan font-size="8px" dy="-8px">(2)</tspan></text>
  <text x="450" y="480" text-anchor="middle" font-size="16px">a<tspan font-size="8px" dy="-8px">(3)</tspan></text>
  <text x="550" y="480" text-anchor="middle" font-size="16px">Θ<tspan font-size="8px" dy="-8px">(3)</tspan></text>
  <text x="650" y="480" text-anchor="middle" font-size="16px">a<tspan font-size="8px" dy="-8px">(4)</tspan></text>
  <!-- Input Layer (yellow) -->
  <circle cx="50" cy="125" r="20" stroke="black" stroke-width="1" fill="#ffffb3" />
  <circle cx="50" cy="200" r="20" stroke="black" stroke-width="1" fill="#ffff00" />
  <circle cx="50" cy="250" r="20" stroke="black" stroke-width="1" fill="#ffff00" />
  <circle cx="50" cy="300" r="20" stroke="black" stroke-width="1" fill="#ffff00" />
  <circle cx="50" cy="350" r="20" stroke="black" stroke-width="1" fill="#ffff00" />
  <path d="M50,380 v40" stroke="black" stroke-width="5" stroke-dasharray="5 5"/>
  <circle cx="50" cy="440" r="20" stroke="black" stroke-width="1" fill="#ffff00" />
  <!-- s0-s1 connections -->
  <path stroke="#ff8833" d="M 70,125 L 230,200 M 70,200 L 230,200 M 70,250 L 230,200 M 70,300 L 230,200 M 70,350 L 230,200 M 70,440 L 230,200" />
  <path stroke="#ff8833" d="M 70,125 L 230,250 M 70,200 L 230,250 M 70,250 L 230,250 M 70,300 L 230,250 M 70,350 L 230,250 M 70,440 L 230,250" />
  <path stroke="#ff8833" d="M 70,125 L 230,350 M 70,200 L 230,350 M 70,250 L 230,350 M 70,300 L 230,350 M 70,350 L 230,350 M 70,440 L 230,350" />
  <!-- Hidden Layer #1 (red) -->
  <circle cx="250" cy="125" r="20" stroke="black" stroke-width="1" fill="#ff99c2" />
  <circle cx="250" cy="200" r="20" stroke="black" stroke-width="1" fill="#ff0066" />
  <circle cx="250" cy="250" r="20" stroke="black" stroke-width="1" fill="#ff0066" />
  <path d="M250,280 v40" stroke="black" stroke-width="5" stroke-dasharray="5 5"/>
  <circle cx="250" cy="350" r="20" stroke="black" stroke-width="1" fill="#ff0066" />
  <!-- s1-s2 connections -->
  <path stroke="#ff00b2" d="M 270,125 L 430,200 M 270,200 L 430,200 M 270,250 L 430,200 M 270,350 L 430,200" />
  <path stroke="#ff00b2" d="M 270,125 L 430,250 M 270,200 L 430,250 M 270,250 L 430,250 M 270,350 L 430,250" />
  <path stroke="#ff00b2" d="M 270,125 L 430,350 M 270,200 L 430,350 M 270,250 L 430,350 M 270,350 L 430,350" />
  <!-- Hidden Layer #2 (fuchsia) -->
  <circle cx="450" cy="125" r="20" stroke="black" stroke-width="1" fill="#ff99ff" />
  <circle cx="450" cy="200" r="20" stroke="black" stroke-width="1" fill="#ff00ff" />
  <circle cx="450" cy="250" r="20" stroke="black" stroke-width="1" fill="#ff00ff" />
  <path d="M450,280 v40" stroke="black" stroke-width="5" stroke-dasharray="5 5"/>
  <circle cx="450" cy="350" r="20" stroke="black" stroke-width="1" fill="#ff00ff" />
  <!-- s2-s3 connections -->
  <path stroke="#8833ff" d="M 470,125 L 630,200 M 470,200 L 630,200 M 470,250 L 630,200 M 470,350 L 630,200" />
  <path stroke="#8833ff" d="M 470,125 L 630,300 M 470,200 L 630,300 M 470,250 L 630,300 M 470,350 L 630,300" />
  <!-- Output Layer (blue) -->
  <circle cx="650" cy="200" r="20" stroke="black" stroke-width="1" fill="#0066ff" />
  <path d="M650,230 v40" stroke="black" stroke-width="5" stroke-dasharray="5 5"/>
  <circle cx="650" cy="300" r="20" stroke="black" stroke-width="1" fill="#0066ff" />
</g></svg>
